<?xml version="1.0" encoding="UTF-8" standalone="no"?>
<svg
   xmlns:dc="http://purl.org/dc/elements/1.1/"
   xmlns:cc="http://creativecommons.org/ns#"
   xmlns:rdf="http://www.w3.org/1999/02/22-rdf-syntax-ns#"
   xmlns:svg="http://www.w3.org/2000/svg"
   xmlns="http://www.w3.org/2000/svg"
   xmlns:sodipodi="http://sodipodi.sourceforge.net/DTD/sodipodi-0.dtd"
   xmlns:inkscape="http://www.inkscape.org/namespaces/inkscape"
   version="1.1"
   id="Capa_1"
   x="0px"
   y="0px"
   width="512px"
   height="512px"
   viewBox="0 0 512 512"
   style="enable-background:new 0 0 512 512;"
   xml:space="preserve"
   inkscape:version="1.0.1 (3bc2e813f5, 2020-09-07)"
   sodipodi:docname="ico_timer_isactive.svg"><metadata
     id="metadata43"><rdf:RDF><cc:Work
         rdf:about=""><dc:format>image/svg+xml</dc:format><dc:type
           rdf:resource="http://purl.org/dc/dcmitype/StillImage" /><dc:title></dc:title></cc:Work></rdf:RDF></metadata><defs
     id="defs41" /><sodipodi:namedview
     pagecolor="#ffffff"
     bordercolor="#666666"
     borderopacity="1"
     objecttolerance="10"
     gridtolerance="10"
     guidetolerance="10"
     inkscape:pageopacity="0"
     inkscape:pageshadow="2"
     inkscape:window-width="1304"
     inkscape:window-height="848"
     id="namedview39"
     showgrid="false"
     inkscape:zoom="0.4609375"
     inkscape:cx="-394.84746"
     inkscape:cy="256"
     inkscape:window-x="302"
     inkscape:window-y="113"
     inkscape:window-maximized="0"
     inkscape:current-layer="Capa_1"
     inkscape:document-rotation="0" /><g
     id="g3"
     style="fill:#{sdcol(iconactive)};fill-opacity:1"><path
       d="M256,0C114.609,0,0,114.609,0,256c0,141.391,114.609,256,256,256c141.391,0,256-114.609,256-256   C512,114.609,397.391,0,256,0z M256,472c-119.297,0-216-96.703-216-216S136.703,40,256,40s216,96.703,216,216S375.297,472,256,472z   "
       id="path5"
       style="fill:#{sdcol(iconactive)};fill-opacity:1" /><path
       d="M336,256c0,44.188-35.812,80-80,80c-44.188,0-80-35.812-80-80c0-44.188,35.812-80,80-80C300.188,176,336,211.812,336,256z"
       id="path7"
       style="fill:#{sdcol(iconactive)};fill-opacity:1" /></g><g
     id="g9" /><g
     id="g11" /><g
     id="g13" /><g
     id="g15" /><g
     id="g17" /><g
     id="g19" /><g
     id="g21" /><g
     id="g23" /><g
     id="g25" /><g
     id="g27" /><g
     id="g29" /><g
     id="g31" /><g
     id="g33" /><g
     id="g35" /><g
     id="g37" /><path
     style="fill:#00ff00;stroke-width:2.16949"
     d="M 215.72807,507.53308 C 162.71961,498.62211 115.11053,474.12463 76.893336,436.09498 39.36807,398.75387 14.112943,351.03911 5.386094,300.99567 c -4.1222903,-23.63898 -4.1222903,-66.35236 0,-89.99133 C 14.008253,161.56122 39.263887,113.48953 75.833077,76.915237 113.15643,39.586666 154.06344,17.595366 209.35593,5.1343523 217.69335,3.2553845 235.24157,2.2725166 258.16949,2.4003239 289.26436,2.5736565 296.6974,3.3268912 314.76087,8.1350626 390.2236,28.221883 445.8588,71.540834 481.2437,137.76271 500.63865,174.05982 509.83051,212.07808 509.83051,256 c 0,53.98027 -12.71674,96.03922 -42.96516,142.10169 -14.45842,22.01739 -45.63955,53.62066 -66.63035,67.53244 -56.44714,37.41066 -122.27803,52.35994 -184.50693,41.89895 z m 79.32278,-38.26109 c 66.69474,-11.18388 124.35288,-54.9441 155.23134,-117.81436 16.81999,-34.24642 21.42302,-54.7568 21.42302,-95.45763 0,-40.70084 -4.60303,-61.2112 -21.42302,-95.45763 C 416.54007,91.841508 351.24449,46.646652 276.63579,40.351623 183.74995,32.514478 102.19857,78.121277 61.717797,160.54237 44.897813,194.7888 40.29479,215.29916 40.29479,256 c 0,40.70083 4.603023,61.21121 21.423007,95.45763 43.386713,88.33777 134.566653,134.37628 233.333053,117.81436 z"
     id="path96" /><path
     style="fill:#008000;stroke-width:2.16949"
     d="m 236.3213,332.35775 c -21.769,-6.17206 -40.50373,-21.79987 -51.22581,-42.73063 -5.50062,-10.73785 -6.11244,-14.10376 -6.11244,-33.62712 0,-19.6807 0.58931,-22.85864 6.3474,-34.22928 7.84645,-15.49455 23.47217,-30.4091 39.82358,-38.01108 10.36368,-4.81822 15.44018,-5.76739 30.84597,-5.76739 15.40578,0 20.48229,0.94917 30.84597,5.76739 16.35141,7.60198 31.97713,22.51653 39.82357,38.01108 5.7581,11.37064 6.34741,14.54858 6.34741,34.22928 0,19.6807 -0.58931,22.85864 -6.34741,34.22928 -7.77464,15.35277 -23.49443,30.4473 -39.19346,37.63455 -14.31303,6.55273 -36.89604,8.53663 -51.15478,4.49392 z"
     id="path98" /><path
     style="fill:#ffff00;stroke-width:2.16949"
     d="M 206.10169,504.49124 C 127.20566,487.59493 62.205776,436.20317 27.173029,363.02238 21.843258,351.88888 14.804192,333.99322 11.530661,323.25424 5.8131936,304.49781 5.578785,301.84906 5.578785,256 c 0,-45.84906 0.2344086,-48.4978 5.951876,-67.25424 C 32.549044,119.79392 80.874604,60.902059 141.75428,30.048987 162.90057,19.332308 198.31759,7.9640136 219.39566,5.1273468 248.93064,1.1525593 296.54254,3.8115829 320,10.745884 c 72.79019,21.517644 127.55914,65.552215 160.24491,128.837896 20.42019,39.53725 27.5415,69.6386 27.5415,116.41622 0,45.37717 -6.91577,75.78975 -25.65361,112.81356 -44.0919,87.12047 -131.07015,140.2941 -228.64308,139.77956 -19.26328,-0.10158 -35.11652,-1.47383 -47.38803,-4.10188 z M 310.59295,466.68002 C 373.25941,450.78337 423.80264,408.85996 452.57467,348.9124 468.66334,315.39107 471.4995,301.46686 471.4995,256 c 0,-45.46685 -2.83616,-59.39108 -18.92483,-92.91239 C 405.84324,65.720986 300.90058,18.252796 195.48196,46.798152 137.02428,62.627376 88.47007,103.99464 59.922035,162.29263 43.457751,195.91436 40.500501,210.18286 40.500501,256 c 0,43.90222 2.572306,57.57609 16.612895,88.31095 32.071417,70.20436 94.044494,116.96666 169.055394,127.56216 22.18618,3.13387 61.01346,0.74552 84.42416,-5.19309 z"
     id="path100" /><path
     style="fill:#800000;stroke-width:2.16949"
     d="m 231.62056,329.87503 c -19.432,-7.47847 -37.58534,-24.44505 -46.3932,-43.36027 -4.18771,-8.99327 -5.12103,-14.57144 -5.13837,-30.71062 -0.019,-17.67761 0.66622,-21.09692 6.61232,-32.99612 7.49464,-14.9981 22.76182,-29.97136 38.42543,-37.68566 8.56481,-4.21817 13.67353,-5.05456 30.87326,-5.05456 17.19972,0 22.30844,0.83639 30.87326,5.05456 15.66361,7.7143 30.93078,22.68756 38.42542,37.68566 5.95268,11.91235 6.63352,15.31908 6.63352,33.19198 0,17.8729 -0.68084,21.27963 -6.63352,33.19198 -7.46529,14.93937 -22.8392,30.05422 -38.06767,37.42619 -12.70572,6.15074 -43.41742,7.94939 -55.61045,3.25686 z"
     id="path120" /><path
     style="fill:#800000;stroke-width:2.16949"
     d="M 206.32865,503.22148 C 158.10069,492.75939 111.99781,467.4798 78.101693,432.91084 50.677575,404.94234 30.547679,372.08509 14.90829,329.76271 L 7.6930601,310.23729 7.6431391,257.08475 C 7.5934779,204.20898 7.6256812,203.83618 13.827422,185.49153 44.840309,93.7559 112.14814,31.18172 203.02701,9.5980336 c 21.63974,-5.1394252 69.64126,-6.079541 96.35674,-1.8871583 33.36001,5.2350907 78.134,25.1103657 109.1443,48.4493957 41.18678,30.998062 74.69251,79.915619 89.32754,130.415999 11.175,38.56104 11.13977,100.34395 -0.0794,139.05859 -26.26219,90.62535 -105.25138,161.57427 -197.86537,177.72481 -23.1306,4.03363 -74.7021,3.95748 -93.58227,-0.13819 z M 309.79013,467.66631 C 375.70909,451.32822 430.02995,404.43826 457.83235,339.87573 469.90119,311.84957 471.81579,300.36534 471.81579,256 c 0,-44.36534 -1.9146,-55.84957 -13.98344,-83.87572 C 430.3918,108.40199 377.49031,62.322634 311.27148,44.463759 286.98023,37.912535 244.2084,36.308376 217.61088,40.951016 143.11647,53.954133 84.368657,101.71226 53.152017,174.64529 41.988799,200.72649 40.1504,212.39437 40.162805,257.08475 c 0.01237,44.84798 1.467919,53.42624 14.047115,82.79098 28.54943,66.64548 86.63006,114.9025 157.3155,130.70755 21.33213,4.7698 73.49908,3.22124 98.26471,-2.91697 z"
     id="path878" /></svg>
